{
	"info": {
		"_postman_id": "1c9ad3e2-5b01-4407-88be-ab0b4fe35a35",
		"name": "delivery",
		"schema": "https://schema.getpostman.com/json/collection/v2.1.0/collection.json"
	},
	"item": [
		{
			"name": "add2cart",
			"request": {
				"method": "POST",
				"header": [],
				"body": {
					"mode": "raw",
					"raw": "{\r\n    \"cookie_session_id\": \"7660e126e2ca6738e50fb6e515be2a4\",\r\n    \"items\": [\r\n        {\r\n                    \"_id\": \"5fa81ad928a6458d1004e8d3\",\r\n                    \"name\": \"Rakito\",\r\n                    \"category\": \"cocktails\",\r\n                    \"price\": \"7.73\",\r\n                    \"enabled\": true,\r\n                    \"available\": true,\r\n                    \"updated_at\": null,\r\n                    \"shop_id\": \"5fa6b3ad0a47bf1a7c2b4902\",\r\n                    \"quantity\": 1,\r\n                    \"comments\": \"\"\r\n                },\r\n                {\r\n                    \"_id\": \"5fa81ad928a6458d1004e8d4\",\r\n                    \"name\": \"Mojito\",\r\n                    \"category\": \"cocktails\",\r\n                    \"price\": \"9.27\",\r\n                    \"enabled\": true,\r\n                    \"available\": true,\r\n                    \"updated_at\": null,\r\n                    \"shop_id\": \"5fa6b3ad0a47bf1a7c2b4902\",\r\n                    \"quantity\": 1,\r\n                    \"comments\": \"\"\r\n                }\r\n    ],\r\n    \"total_price\": 17.00,\r\n    \"currency\":\"USD\",\r\n    \"currencyMultiplier\":1.188835\r\n}",
					"options": {
						"raw": {
							"language": "json"
						}
					}
				},
				"url": {
					"raw": "http://localhost:80/shops/:shop_id/add-to-cart",
					"protocol": "http",
					"host": [
						"localhost"
					],
					"port": "80",
					"path": [
						"shops",
						":shop_id",
						"add-to-cart"
					],
					"variable": [
						{
							"key": "shop_id",
							"value": "5fa6b3ad0a47bf1a7c2b4902"
						}
					]
				}
			},
			"response": []
		},
		{
			"name": "submitOrder",
			"request": {
				"method": "POST",
				"header": [],
				"body": {
					"mode": "raw",
					"raw": "{\r\n    \"cookie_session_id\": \"7660e126e2ca6738e50fb6e515be2a4\",\r\n    \"address\": \"Eth.Antistaseos 31\",\r\n    \"address_num\": \"31\",\r\n    \"city\": \"Aegaleo\",\r\n    \"doorbell\":\"Jones\",\r\n    \"comments\": \"3rd floor no name on the doorbell, please call me at 379483943\",\r\n    \"mail\": \"pa@yahoo.gr\"\r\n}",
					"options": {
						"raw": {
							"language": "json"
						}
					}
				},
				"url": {
					"raw": "http://localhost:80/shops/:shop_id/submit-order",
					"protocol": "http",
					"host": [
						"localhost"
					],
					"port": "80",
					"path": [
						"shops",
						":shop_id",
						"submit-order"
					],
					"variable": [
						{
							"key": "shop_id",
							"value": "5fa6b3ad0a47bf1a7c2b4902"
						}
					]
				}
			},
			"response": []
		},
		{
			"name": "List Shops",
			"request": {
				"method": "GET",
				"header": [],
				"url": {
					"raw": "http://localhost:80/shops",
					"protocol": "http",
					"host": [
						"localhost"
					],
					"port": "80",
					"path": [
						"shops"
					]
				},
				"description": "Responds with the list of the active shops"
			},
			"response": []
		},
		{
			"name": "List Shop's Menu",
			"request": {
				"method": "GET",
				"header": [],
				"url": {
					"raw": "http://localhost:80/shops/:shop_id",
					"protocol": "http",
					"host": [
						"localhost"
					],
					"port": "80",
					"path": [
						"shops",
						":shop_id"
					],
					"variable": [
						{
							"key": "shop_id",
							"value": "5fa6b3ad0a47bf1a7c2b4902"
						}
					]
				},
				"description": "Responses with the menu"
			},
			"response": []
		},
		{
			"name": "Merchant's Orders",
			"request": {
				"method": "GET",
				"header": [],
				"url": {
					"raw": "http://localhost:80/merchant/:_id/orders",
					"protocol": "http",
					"host": [
						"localhost"
					],
					"port": "80",
					"path": [
						"merchant",
						":_id",
						"orders"
					],
					"variable": [
						{
							"key": "_id",
							"value": "5fa6b3ad0a47bf1a7c2b48ff"
						}
					]
				},
				"description": "Responds with all the new shop's orders\r\n"
			},
			"response": []
		}
	],
	"protocolProfileBehavior": {}
}