{
    "mongo": {
        "development": "mongodb://localhost:27017/delivery", 
        "production": "mongodb+srv://delivery:5s6rzOBaqOPSUSvB@cluster0.ret17.mongodb.net/delivery?retryWrites=true&w=majority"
    },            
    "api": {
        "callValidations": {
            "ADD-ITEM": {  "name" : "string", "category": "string", "price": "number" }
        }
    },
    "net_payout_percentage": 0.1
}